{
  "_embedded": {
    "transactionDtoList": [
      {
        "id": 1,
        "userId": "asd123-user1",
        "amount": 55.0,
        "_links": {
          "self": {
            "href": "http://localhost:8080/api/transactions/1"
          }
        }
      },
      {
        "id": 2,
        "userId": "asd123-user1",
        "amount": 33.0,
        "_links": {
          "self": {
            "href": "http://localhost:8080/api/transactions/2"
          }
        }
      },
      {
        "id": 3,
        "userId": "asd123-user1",
        "amount": 55.0,
        "_links": {
          "self": {
            "href": "http://localhost:8080/api/transactions/3"
          }
        }
      },
      {
        "id": 4,
        "userId": "asd123-user1",
        "amount": 123.0,
        "_links": {
          "self": {
            "href": "http://localhost:8080/api/transactions/4"
          }
        }
      },
      {
        "id": 5,
        "userId": "asd123-user1",
        "amount": 432.0,
        "_links": {
          "self": {
            "href": "http://localhost:8080/api/transactions/5"
          }
        }
      }
    ]
  },
  "_links": {
    "self": {
      "href": "http://localhost:8080/api/transactions?userId=asd123-user1&page=0&size=5"
    },
    "next": {
      "href": "http://localhost:8080/api/transactions?userId=asd123-user1&page=1&size=5"
    },
    "first": {
      "href": "http://localhost:8080/api/transactions?userId=asd123-user1&page=0&size=5"
    },
    "last": {
      "href": "http://localhost:8080/api/transactions?userId=asd123-user1&page=2&size=5"
    }
  },
  "page": {
    "size": 5,
    "totalElements": 12,
    "totalPages": 3,
    "number": 0
  }
}