{
  "_embedded": {
    "transactionDtoList": [
      {
        "id": 11,
        "userId": "asd123-user1",
        "amount": 2127.0,
        "_links": {
          "self": {
            "href": "http://localhost:8080/api/transactions/11"
          }
        }
      },
      {
        "id": 12,
        "userId": "asd123-user1",
        "amount": 3980.0,
        "_links": {
          "self": {
            "href": "http://localhost:8080/api/transactions/12"
          }
        }
      }
    ]
  },
  "_links": {
    "self": {
      "href": "http://localhost:8080/api/transactions?userId=asd123-user1&page=2&size=5"
    },
    "prev": {
      "href": "http://localhost:8080/api/transactions?userId=asd123-user1&page=1&size=5"
    },
    "first": {
      "href": "http://localhost:8080/api/transactions?userId=asd123-user1&page=0&size=5"
    },
    "last": {
      "href": "http://localhost:8080/api/transactions?userId=asd123-user1&page=2&size=5"
    }
  },
  "page": {
    "size": 5,
    "totalElements": 12,
    "totalPages": 3,
    "number": 2
  }
}